trace.vcd
$date
     Jan 04, 2016       16:11:32
$end

$version
              SystemC 2.3.0-ASI --- Oct  2 2012 17:21:59
$end

$timescale
     1 ns
$end

$scope module SystemC $end
$var wire    1  aaa  clock       $end
$var wire    1  aab  cpu1_itr       $end
$var wire    8  aac  cpu1_task [7:0]  $end
$var wire    1  aad  cpu2_itr       $end
$var wire    8  aae  cpu2_task [7:0]  $end
$var wire    8  aaf  cpu1_task0_state [7:0]  $end
$var wire    8  aag  cpu2_task0_state [7:0]  $end
$var wire    8  aah  cpu1_task1_state [7:0]  $end
$var wire    8  aai  cpu2_task1_state [7:0]  $end
$var wire    8  aaj  cpu1_task2_state [7:0]  $end
$var wire    8  aak  cpu2_task2_state [7:0]  $end
$var wire    8  aal  cpu1_task3_state [7:0]  $end
$var wire    8  aam  cpu2_task3_state [7:0]  $end
$var wire    8  aan  cpu1_task4_state [7:0]  $end
$var wire    8  aao  cpu2_task4_state [7:0]  $end
$var wire    8  aap  cpu1_task5_state [7:0]  $end
$var wire    8  aaq  cpu2_task5_state [7:0]  $end
$var wire    8  aar  cpu1_task6_state [7:0]  $end
$var wire    8  aas  cpu2_task6_state [7:0]  $end
$var wire    8  aat  cpu1_task7_state [7:0]  $end
$var wire    8  aau  cpu2_task7_state [7:0]  $end
$var wire    8  aav  cpu1_task8_state [7:0]  $end
$var wire    8  aaw  cpu2_task8_state [7:0]  $end
$var wire    8  aax  cpu1_task9_state [7:0]  $end
$var wire    8  aay  cpu2_task9_state [7:0]  $end
$var wire    8  aaz  cpu1_task10_state [7:0]  $end
$var wire    8  aba  cpu2_task10_state [7:0]  $end
$upscope $end
$enddefinitions  $end

$comment
All initial values are dumped below at time 0 sec = 0 timescale units.
$end

$dumpvars
1aaa
0aab
b1100100 aac
0aad
b1100100 aae
b0 aaf
b0 aag
b0 aah
b0 aai
b0 aaj
b0 aak
b0 aal
b0 aam
b0 aan
b0 aao
b0 aap
b0 aaq
b0 aar
b0 aas
b0 aat
b0 aau
b0 aav
b0 aaw
b0 aax
b0 aay
b0 aaz
b0 aba
$end

#5
0aaa

#10
1aaa

#15
0aaa

#20
1aaa

#25
0aaa

#30
1aaa

#35
0aaa

#40
1aaa

#45
0aaa

#50
1aaa

#55
0aaa

#60
1aaa

#65
0aaa

#70
1aaa

#75
0aaa

#80
1aaa

#85
0aaa

#90
1aaa
b1 aac

#95
0aaa
b1100001 aah
b1100010 aai

#100
1aaa

#105
0aaa

#110
1aaa

#115
0aaa

#120
1aaa

#125
0aaa

#130
1aaa

#135
0aaa

#140
1aaa

#145
0aaa

#150
1aaa

#155
0aaa

#160
1aaa

#165
0aaa

#170
1aaa

#175
0aaa

#180
1aaa

#185
0aaa

#190
1aaa

#195
0aaa
b1100010 aak

#200
1aaa

#205
0aaa

#210
1aaa

#215
0aaa

#220
1aaa

#225
0aaa

#230
1aaa

#235
0aaa

#240
1aaa

#245
0aaa

#250
1aaa

#255
0aaa

#260
1aaa

#265
0aaa

#270
1aaa

#275
0aaa

#280
1aaa

#285
0aaa

#290
1aaa

#295
0aaa
b1100010 aam

#300
1aaa

#305
0aaa

#310
1aaa

#315
0aaa

#320
1aaa

#325
0aaa

#330
1aaa

#335
0aaa

#340
1aaa

#345
0aaa

#350
1aaa

#355
0aaa

#360
1aaa

#365
0aaa

#370
1aaa

#375
0aaa

#380
1aaa

#385
0aaa

#390
1aaa
b100 aae

#395
0aaa
b1100001 aao

#400
1aaa

#405
0aaa

#410
1aaa

#415
0aaa

#420
1aaa

#425
0aaa

#430
1aaa

#435
0aaa

#440
1aaa

#445
0aaa

#450
1aaa

#455
0aaa

#460
1aaa

#465
0aaa

#470
1aaa

#475
0aaa

#480
1aaa

#485
0aaa

#490
1aaa

#495
0aaa

#500
1aaa

#505
0aaa

#510
1aaa

#515
0aaa

#520
1aaa

#525
0aaa

#530
1aaa

#535
0aaa

#540
1aaa

#545
0aaa

#550
1aaa

#555
0aaa

#560
1aaa

#565
0aaa

#570
1aaa

#575
0aaa

#580
1aaa

#585
0aaa

#590
1aaa

#595
0aaa

#600
1aaa

#605
0aaa

#610
1aaa

#615
0aaa

#620
1aaa

#625
0aaa

#630
1aaa

#635
0aaa

#640
1aaa

#645
0aaa

#650
1aaa

#655
0aaa

#660
1aaa

#665
0aaa

#670
1aaa

#675
0aaa

#680
1aaa

#685
0aaa

#690
1aaa

#695
0aaa

#700
1aaa

#705
0aaa

#710
1aaa

#715
0aaa

#720
1aaa

#725
0aaa

#730
1aaa

#735
0aaa

#740
1aaa

#745
0aaa

#750
1aaa

#755
0aaa

#760
1aaa

#765
0aaa

#770
1aaa

#775
0aaa

#780
1aaa

#785
0aaa

#790
1aaa

#795
0aaa

#800
1aaa

#805
0aaa

#810
1aaa

#815
0aaa

#820
1aaa

#825
0aaa

#830
1aaa

#835
0aaa

#840
1aaa

#845
0aaa

#850
1aaa

#855
0aaa

#860
1aaa

#865
0aaa

#870
1aaa

#875
0aaa

#880
1aaa

#885
0aaa

#890
1aaa

#895
0aaa

#900
1aaa

#905
0aaa

#910
1aaa

#915
0aaa

#920
1aaa

#925
0aaa

#930
1aaa

#935
0aaa

#940
1aaa

#945
0aaa

#950
1aaa

#955
0aaa

#960
1aaa

#965
0aaa

#970
1aaa

#975
0aaa

#980
1aaa

#985
0aaa

#990
1aaa
1aab
b1100100 aac
1aad
b1100100 aae

#995
0aaa
b1110010 aah
b1110010 aao

#1000
1aaa
0aab
0aad

#1005
0aaa

#1010
1aaa

#1015
0aaa

#1020
1aaa

#1025
0aaa

#1030
1aaa

#1035
0aaa

#1040
1aaa

#1045
0aaa

#1050
1aaa

#1055
0aaa

#1060
1aaa

#1065
0aaa

#1070
1aaa

#1075
0aaa

#1080
1aaa

#1085
0aaa

#1090
1aaa
b10 aac
b101 aae

#1095
0aaa
b1100001 aaj
b1110010 aak
b1100001 aaq

